%YAML 1.1
%TAG !u! tag:unity3d.com,2011:
--- !u!114 &11400000
MonoBehaviour:
  m_ObjectHideFlags: 0
  m_CorrespondingSourceObject: {fileID: 0}
  m_PrefabInstance: {fileID: 0}
  m_PrefabAsset: {fileID: 0}
  m_GameObject: {fileID: 0}
  m_Enabled: 1
  m_EditorHideFlags: 0
  m_Script: {fileID: 11500000, guid: 4c779848d9dd029409ca676b49e10a18, type: 3}
  m_Name: Rule Override Tile
  m_EditorClassIdentifier: 
  m_Tile: {fileID: 11400000, guid: ab36ddd653a6449a6bce4204dc77004c, type: 2}
  m_OverrideSelf: 1
  m_Advanced: 0
  m_Sprites:
  - m_OriginalSprite: {fileID: 6575513626842727818, guid: 6986184a7e5324ac69d6a2b57d9657ea,
      type: 3}
    m_OverrideSprite: {fileID: 5849635200526985341, guid: 6986184a7e5324ac69d6a2b57d9657ea,
      type: 3}
  - m_OriginalSprite: {fileID: -811188583729857409, guid: 6986184a7e5324ac69d6a2b57d9657ea,
      type: 3}
    m_OverrideSprite: {fileID: 1345417515635245214, guid: 6986184a7e5324ac69d6a2b57d9657ea,
      type: 3}
  - m_OriginalSprite: {fileID: -786071254483785625, guid: 6986184a7e5324ac69d6a2b57d9657ea,
      type: 3}
    m_OverrideSprite: {fileID: -3566959855654667842, guid: 6986184a7e5324ac69d6a2b57d9657ea,
      type: 3}
  m_OverrideTilingRules: []
  m_OverrideDefault:
    m_Enabled: 0
    m_TilingRule:
      m_Neighbors: 0000000000000000000000000000000000000000000000000000000000000000
      m_Sprites:
      - {fileID: 0}
      m_GameObject: {fileID: 0}
      m_AnimationSpeed: 1
      m_PerlinScale: 0.5
      m_RuleTransform: 0
      m_Output: 0
      m_ColliderType: 1
      m_RandomTransform: 0
